Total exportations of Mexico by State and Activity
…
 [1] "Total"               "Food"                "Drinks and tobacco" 
 [4] "Textiles"            "Textile products"    "Tailoring"          
 [7] "Paper"               "Chemistry"           "Plastic"            
[10] "Minerals based"      "Metal industry"      "Metal products"     
[13] "Machinery"           "Electronics"         "Transport equipment"
[16] "Furniture"           "Other manufactures"  "Not specified"      
[19] "Mining"              "Leather"             "Wood"               
[22] "Printing"            "Electricity"         "Petroleum"          
[25] "Petroleum products"

## Creamos una nueva columna "Activity" con las expressiones en ingles
(export.rows <- mutate(export.rows,
                      Activity = translate(`Descripción`)))

# A tibble: 5,255 x 6
   Código Descripción           state           year     USD Activity
    <dbl> <chr>                 <chr>          <dbl>   <dbl> <chr>   
 1     NA Exportaciones totales Aguascalientes  2007 4389841 Total   
 2     NA Exportaciones totales Aguascalientes  2008 4456893 Total   
 3     NA Exportaciones totales Aguascalientes  2009 3951108 Total   
 4     NA Exportaciones totales Aguascalientes  2010 5647929 Total   
 5     NA Exportaciones totales Aguascalientes  2011 6051640 Total   
 6     NA Exportaciones totales Aguascalientes  2012 6183782 Total   
 7     NA Exportaciones totales Aguascalientes  2013 6726207 Total   
 8     NA Exportaciones totales Aguascalientes  2014 8466007 Total   
 9     NA Exportaciones totales Aguascalientes  2015 8495445 Total   
10     NA Exportaciones totales Aguascalientes  2016 7870962 Total   
# … with 5,245 more rows
…
